{
    "baseUrl": "http://thaiissue.localhost:8000/",
    "authenticatedUri": "/api/clients/is-authenticated",
    "clientType": {
        "uri": "/oauth/token",
        "clientId": 1,
        "clientSecret": "GwpYTy53SEJ09GtqrLJtEFMqt5FKbfaSE3Gphj0g",
        "grantType": "client_credentials",
        "scope": "*"
    },
    "passwordType": {
        "uri": "/oauth/token",
        "clientId": 2,
        "clientSecret": "xWIERdQgF2voxNRhWKCFlc0WqXLukg7JKH0fNGy3",
        "grantType": "password",
        "scope": "*"
    }
}
